# Blender v2.76 (sub 0) OBJ File: 'interior.blend'
# www.blender.org
mtllib interior-colider-sofa_front.mtl
o 큐브.006
v -4.098373 0.030826 3.123006
v -4.098373 0.778628 3.123006
v -4.098373 0.030826 -1.713406
v -4.098373 0.778628 -1.713406
v -2.422411 0.030826 3.123006
v -2.422411 0.778628 3.123006
v -2.422411 0.030826 -1.713406
v -2.422411 0.778628 -1.713406
vn -1.000000 0.000000 0.000000
vn 0.000000 0.000000 -1.000000
vn 1.000000 0.000000 0.000000
vn 0.000000 0.000000 1.000000
vn 0.000000 -1.000000 0.000000
vn 0.000000 1.000000 0.000000
usemtl None
s off
f 2//1 4//1 3//1 1//1
f 4//2 8//2 7//2 3//2
f 8//3 6//3 5//3 7//3
f 6//4 2//4 1//4 5//4
f 1//5 3//5 7//5 5//5
f 6//6 8//6 4//6 2//6
o 큐브.007
v -4.098373 0.783723 3.123006
v -4.098373 1.896826 3.123006
v -4.098373 0.783723 -1.713406
v -4.098373 1.896826 -1.713406
v -3.504668 0.783723 3.123006
v -3.504668 1.896826 3.123006
v -3.504668 0.783723 -1.713406
v -3.504668 1.896826 -1.713406
vn -1.000000 0.000000 0.000000
vn 0.000000 0.000000 -1.000000
vn 1.000000 0.000000 0.000000
vn 0.000000 0.000000 1.000000
vn 0.000000 -1.000000 0.000000
vn 0.000000 1.000000 0.000000
usemtl None
s off
f 10//7 12//7 11//7 9//7
f 12//8 16//8 15//8 11//8
f 16//9 14//9 13//9 15//9
f 14//10 10//10 9//10 13//10
f 9//11 11//11 15//11 13//11
f 14//12 16//12 12//12 10//12
o 큐브.008
v -3.493968 0.783723 3.123006
v -3.493968 1.673117 3.123006
v -3.493968 0.783723 2.944234
v -3.493968 1.673117 2.944234
v -2.425002 0.783723 3.123006
v -2.425002 1.673117 3.123006
v -2.425002 0.783723 2.944234
v -2.425002 1.673117 2.944234
vn -1.000000 0.000000 0.000000
vn 0.000000 0.000000 -1.000000
vn 1.000000 0.000000 0.000000
vn 0.000000 0.000000 1.000000
vn 0.000000 -1.000000 0.000000
vn 0.000000 1.000000 0.000000
usemtl None
s off
f 18//13 20//13 19//13 17//13
f 20//14 24//14 23//14 19//14
f 24//15 22//15 21//15 23//15
f 22//16 18//16 17//16 21//16
f 17//17 19//17 23//17 21//17
f 22//18 24//18 20//18 18//18
o 큐브.009
v -3.493968 0.783723 -1.522381
v -3.493968 1.673117 -1.522381
v -3.493968 0.783723 -1.701154
v -3.493968 1.673117 -1.701154
v -2.425002 0.783723 -1.522381
v -2.425002 1.673117 -1.522381
v -2.425002 0.783723 -1.701154
v -2.425002 1.673117 -1.701154
vn -1.000000 0.000000 0.000000
vn 0.000000 0.000000 -1.000000
vn 1.000000 0.000000 0.000000
vn 0.000000 0.000000 1.000000
vn 0.000000 -1.000000 0.000000
vn 0.000000 1.000000 0.000000
usemtl None
s off
f 26//19 28//19 27//19 25//19
f 28//20 32//20 31//20 27//20
f 32//21 30//21 29//21 31//21
f 30//22 26//22 25//22 29//22
f 25//23 27//23 31//23 29//23
f 30//24 32//24 28//24 26//24
