# Blender v2.76 (sub 0) OBJ File: 'interior.blend'
# www.blender.org
mtllib interior-colider-room.mtl
o 큐브.039_큐브.040
v -4.150107 -0.041254 -13.150955
v -4.150107 8.682750 -13.150955
v -4.150107 -0.041254 -15.150955
v -4.150107 8.682750 -15.150955
v 7.126767 -0.041254 -13.150955
v 7.126767 8.682750 -13.150955
v 7.126767 -0.041254 -15.150955
v 7.126767 8.682750 -15.150955
vn -1.000000 0.000000 0.000000
vn 0.000000 0.000000 -1.000000
vn 1.000000 0.000000 0.000000
vn 0.000000 0.000000 1.000000
vn 0.000000 -1.000000 0.000000
vn 0.000000 1.000000 0.000000
usemtl None
s off
f 2//1 4//1 3//1 1//1
f 4//2 8//2 7//2 3//2
f 8//3 6//3 5//3 7//3
f 6//4 2//4 1//4 5//4
f 1//5 3//5 7//5 5//5
f 6//6 8//6 4//6 2//6
o 큐브.037_큐브.038
v -4.435603 -0.127583 10.832856
v -4.435603 9.645051 10.832856
v -4.435603 -0.127583 -13.947509
v -4.435603 9.645051 -13.947509
v -4.139277 -0.127583 10.832856
v -4.139277 9.645051 10.832856
v -4.139277 -0.127583 -13.947509
v -4.139277 9.645051 -13.947509
vn -1.000000 0.000000 0.000000
vn 0.000000 0.000000 -1.000000
vn 1.000000 0.000000 0.000000
vn 0.000000 0.000000 1.000000
vn 0.000000 -1.000000 0.000000
vn 0.000000 1.000000 0.000000
usemtl None
s off
f 10//7 12//7 11//7 9//7
f 12//8 16//8 15//8 11//8
f 16//9 14//9 13//9 15//9
f 14//10 10//10 9//10 13//10
f 9//11 11//11 15//11 13//11
f 14//12 16//12 12//12 10//12
o 큐브
v -4.398709 -0.531396 10.826847
v -4.398709 -0.000313 10.826847
v -4.398709 -0.531396 -14.261021
v -4.398709 -0.000313 -14.261021
v 7.081184 -0.531396 10.826847
v 7.081184 -0.000313 10.826847
v 7.081184 -0.531396 -14.261021
v 7.081184 -0.000313 -14.261021
vn -1.000000 0.000000 0.000000
vn 0.000000 0.000000 -1.000000
vn 1.000000 0.000000 0.000000
vn 0.000000 0.000000 1.000000
vn 0.000000 -1.000000 0.000000
vn 0.000000 1.000000 0.000000
usemtl None
s off
f 18//13 20//13 19//13 17//13
f 20//14 24//14 23//14 19//14
f 24//15 22//15 21//15 23//15
f 22//16 18//16 17//16 21//16
f 17//17 19//17 23//17 21//17
f 22//18 24//18 20//18 18//18
o 큐브.033_큐브.034
v -4.398709 14.970486 10.826847
v -4.398709 15.501568 10.826847
v -4.398709 14.970486 -13.107109
v -4.398709 15.501568 -13.107109
v 7.081184 14.970486 10.826847
v 7.081184 15.501568 10.826847
v 7.081184 14.970486 -13.107109
v 7.081184 15.501568 -13.107109
vn -1.000000 0.000000 0.000000
vn 0.000000 0.000000 -1.000000
vn 1.000000 0.000000 0.000000
vn 0.000000 0.000000 1.000000
vn 0.000000 -1.000000 0.000000
vn 0.000000 1.000000 0.000000
usemtl None
s off
f 26//19 28//19 27//19 25//19
f 28//20 32//20 31//20 27//20
f 32//21 30//21 29//21 31//21
f 30//22 26//22 25//22 29//22
f 25//23 27//23 31//23 29//23
f 30//24 32//24 28//24 26//24
o 큐브.034_큐브.035
v -4.398709 7.661097 10.813351
v -4.398709 14.975813 10.813351
v -4.398709 7.661097 -3.591002
v -4.398709 14.975813 -3.591002
v 7.081184 7.661097 10.813351
v 7.081184 14.975813 10.813351
v 7.081184 7.661097 -3.591002
v 7.081184 14.975813 -3.591002
vn -1.000000 0.000000 0.000000
vn 0.000000 0.000000 -1.000000
vn 1.000000 0.000000 0.000000
vn 0.000000 0.000000 1.000000
vn 0.000000 -1.000000 0.000000
vn 0.000000 1.000000 0.000000
usemtl None
s off
f 34//25 36//25 35//25 33//25
f 36//26 40//26 39//26 35//26
f 40//27 38//27 37//27 39//27
f 38//28 34//28 33//28 37//28
f 33//29 35//29 39//29 37//29
f 38//30 40//30 36//30 34//30
o 큐브.035_큐브.036
v 2.470419 7.661097 -3.580020
v 2.470419 15.016695 -3.580020
v 2.470419 7.661097 -11.783696
v 2.470419 15.016695 -11.783696
v 7.085286 7.661097 -3.580020
v 7.085286 15.016695 -3.580020
v 7.085286 7.661097 -11.783696
v 7.085286 15.016695 -11.783696
vn -1.000000 0.000000 0.000000
vn 0.000000 0.000000 -1.000000
vn 1.000000 0.000000 0.000000
vn 0.000000 0.000000 1.000000
vn 0.000000 -1.000000 0.000000
vn 0.000000 1.000000 0.000000
usemtl None
s off
f 42//31 44//31 43//31 41//31
f 44//32 48//32 47//32 43//32
f 48//33 46//33 45//33 47//33
f 46//34 42//34 41//34 45//34
f 41//35 43//35 47//35 45//35
f 46//36 48//36 44//36 42//36
o 큐브.036_큐브.037
v -4.395933 7.661097 -11.789942
v -4.395933 15.488701 -11.789942
v -4.395933 7.661097 -13.206945
v -4.395933 15.488701 -13.206945
v 7.085286 7.661097 -11.789942
v 7.085286 15.488701 -11.789942
v 7.085286 7.661097 -13.206945
v 7.085286 15.488701 -13.206945
vn -1.000000 0.000000 0.000000
vn 0.000000 0.000000 -1.000000
vn 1.000000 0.000000 0.000000
vn 0.000000 0.000000 1.000000
vn 0.000000 -1.000000 0.000000
vn 0.000000 1.000000 0.000000
usemtl None
s off
f 50//37 52//37 51//37 49//37
f 52//38 56//38 55//38 51//38
f 56//39 54//39 53//39 55//39
f 54//40 50//40 49//40 53//40
f 49//41 51//41 55//41 53//41
f 54//42 56//42 52//42 50//42
o 큐브.038_큐브.039
v 6.909752 -0.127583 10.832856
v 6.909752 9.645051 10.832856
v 6.909752 -0.127583 -13.947509
v 6.909752 9.645051 -13.947509
v 7.206079 -0.127583 10.832856
v 7.206079 9.645051 10.832856
v 7.206079 -0.127583 -13.947509
v 7.206079 9.645051 -13.947509
vn -1.000000 0.000000 0.000000
vn 0.000000 0.000000 -1.000000
vn 1.000000 0.000000 0.000000
vn 0.000000 0.000000 1.000000
vn 0.000000 -1.000000 0.000000
vn 0.000000 1.000000 0.000000
usemtl None
s off
f 58//43 60//43 59//43 57//43
f 60//44 64//44 63//44 59//44
f 64//45 62//45 61//45 63//45
f 62//46 58//46 57//46 61//46
f 57//47 59//47 63//47 61//47
f 62//48 64//48 60//48 58//48
o 큐브.040_큐브.018
v -4.923644 -1.675109 12.827058
v -4.923644 9.539583 12.827058
v -4.923644 -1.675109 10.702556
v -4.923644 9.539583 10.702556
v 7.240368 -1.675109 12.827058
v 7.240368 9.539583 12.827058
v 7.240368 -1.675109 10.702556
v 7.240368 9.539583 10.702556
vn -1.000000 0.000000 0.000000
vn 0.000000 0.000000 -1.000000
vn 1.000000 0.000000 0.000000
vn 0.000000 0.000000 1.000000
vn 0.000000 -1.000000 0.000000
vn 0.000000 1.000000 0.000000
usemtl None
s off
f 66//49 68//49 67//49 65//49
f 68//50 72//50 71//50 67//50
f 72//51 70//51 69//51 71//51
f 70//52 66//52 65//52 69//52
f 65//53 67//53 71//53 69//53
f 70//54 72//54 68//54 66//54
