# Blender v2.76 (sub 0) OBJ File: 'interior.blend'
# www.blender.org
mtllib blinder.mtl
o Group002_Box103
v 6.912072 7.269994 -5.995164
v 6.912072 7.269995 -13.354928
v 6.974309 7.269995 -13.354928
v 6.974309 7.269994 -5.995164
v 6.912072 7.606145 -5.995164
v 6.974309 7.606145 -5.995164
v 6.974309 7.606147 -13.354928
v 6.912072 7.606147 -13.354928
v 6.912072 6.782574 -5.995164
v 6.912072 6.782576 -13.354928
v 6.974309 6.782576 -13.354928
v 6.974309 6.782574 -5.995164
v 6.912072 7.118725 -5.995164
v 6.974309 7.118725 -5.995164
v 6.974309 7.118727 -13.354928
v 6.912072 7.118727 -13.354928
v 6.912072 6.295154 -5.995164
v 6.912072 6.295156 -13.354928
v 6.974309 6.295156 -13.354928
v 6.974309 6.295154 -5.995164
v 6.912072 6.631306 -5.995164
v 6.974309 6.631306 -5.995164
v 6.974309 6.631307 -13.354928
v 6.912072 6.631307 -13.354928
v 6.912072 5.807734 -5.995164
v 6.912072 5.807736 -13.354928
v 6.974309 5.807736 -13.354928
v 6.974309 5.807734 -5.995164
v 6.912072 6.143886 -5.995164
v 6.974309 6.143886 -5.995164
v 6.974309 6.143888 -13.354928
v 6.912072 6.143888 -13.354928
v 6.912072 5.320315 -5.995164
v 6.912072 5.320316 -13.354928
v 6.974309 5.320316 -13.354928
v 6.974309 5.320315 -5.995164
v 6.912072 5.656466 -5.995164
v 6.974309 5.656466 -5.995164
v 6.974309 5.656468 -13.354928
v 6.912072 5.656468 -13.354928
v 6.912072 4.832895 -5.995164
v 6.912072 4.832896 -13.354928
v 6.974309 4.832896 -13.354928
v 6.974309 4.832895 -5.995164
v 6.912072 5.169046 -5.995164
v 6.974309 5.169046 -5.995164
v 6.974309 5.169048 -13.354928
v 6.912072 5.169048 -13.354928
v 6.912072 4.345475 -5.995165
v 6.912072 4.345477 -13.354928
v 6.974309 4.345477 -13.354928
v 6.974309 4.345475 -5.995165
v 6.912072 4.681627 -5.995164
v 6.974309 4.681627 -5.995164
v 6.974309 4.681628 -13.354928
v 6.912072 4.681628 -13.354928
v 6.912072 3.858056 -5.995165
v 6.912072 3.858057 -13.354928
v 6.974309 3.858057 -13.354928
v 6.974309 3.858056 -5.995165
v 6.912072 4.194207 -5.995165
v 6.974309 4.194207 -5.995165
v 6.974309 4.194209 -13.354928
v 6.912072 4.194209 -13.354928
v 6.912072 3.370636 -5.995165
v 6.912072 3.370637 -13.354928
v 6.974309 3.370637 -13.354928
v 6.974309 3.370636 -5.995165
v 6.912072 3.706787 -5.995165
v 6.974309 3.706787 -5.995165
v 6.974309 3.706789 -13.354928
v 6.912072 3.706789 -13.354928
v 6.912072 2.883216 -5.995165
v 6.912072 2.883217 -13.354929
v 6.974309 2.883217 -13.354929
v 6.974309 2.883216 -5.995165
v 6.912072 3.219368 -5.995165
v 6.974309 3.219368 -5.995165
v 6.974309 3.219369 -13.354928
v 6.912072 3.219369 -13.354928
v 6.912072 2.395796 -5.995165
v 6.912072 2.395797 -13.354929
v 6.974309 2.395797 -13.354929
v 6.974309 2.395796 -5.995165
v 6.912072 2.731948 -5.995165
v 6.974309 2.731948 -5.995165
v 6.974309 2.731949 -13.354929
v 6.912072 2.731949 -13.354929
v 6.912072 1.908376 -5.995165
v 6.912072 1.908378 -13.354929
v 6.974309 1.908378 -13.354929
v 6.974309 1.908376 -5.995165
v 6.912072 2.244528 -5.995165
v 6.974309 2.244528 -5.995165
v 6.974309 2.244529 -13.354929
v 6.912072 2.244529 -13.354929
v 6.912072 1.420957 -5.995165
v 6.912072 1.420958 -13.354929
v 6.974309 1.420958 -13.354929
v 6.974309 1.420957 -5.995165
v 6.912072 1.757108 -5.995165
v 6.974309 1.757108 -5.995165
v 6.974309 1.757110 -13.354929
v 6.912072 1.757110 -13.354929
v 6.912072 0.933537 -5.995165
v 6.912072 0.933538 -13.354929
v 6.974309 0.933538 -13.354929
v 6.974309 0.933537 -5.995165
v 6.912072 1.269688 -5.995165
v 6.974309 1.269688 -5.995165
v 6.974309 1.269690 -13.354929
v 6.912072 1.269690 -13.354929
v 6.912072 0.446117 -5.995165
v 6.912072 0.446118 -13.354929
v 6.974309 0.446118 -13.354929
v 6.974309 0.446117 -5.995165
v 6.912072 0.782269 -5.995165
v 6.974309 0.782269 -5.995165
v 6.974309 0.782270 -13.354929
v 6.912072 0.782270 -13.354929
vt 0.903146 0.757867
vt 0.903146 0.692133
vt 0.907908 0.692133
vt 0.907908 0.757867
vt 0.912671 0.692133
vt 0.912671 0.757867
vt 0.898383 0.751862
vt 0.903146 0.751862
vt 0.903146 0.754864
vt 0.898383 0.754864
vt 0.938394 0.692133
vt 0.938394 0.757867
vt 0.898383 0.757867
vt 0.964117 0.692133
vt 0.964117 0.757867
vn 0.000000 -1.000000 -0.000000
vn 0.000000 1.000000 0.000000
vn 0.000000 -0.000000 1.000000
vn 1.000000 0.000000 0.000000
vn 0.000000 0.000000 -1.000000
vn -1.000000 0.000000 0.000000
usemtl lambert3SG
s off
f 1/1/1 2/2/1 3/3/1 4/4/1
f 5/3/2 6/5/2 7/6/2 8/4/2
f 1/7/3 4/8/3 6/9/3 5/10/3
f 4/6/4 3/5/4 7/11/4 6/12/4
f 3/1/5 2/13/5 8/10/5 7/9/5
f 2/14/6 1/15/6 5/12/6 8/11/6
f 9/1/1 10/2/1 11/3/1 12/4/1
f 13/3/2 14/5/2 15/6/2 16/4/2
f 9/7/3 12/8/3 14/9/3 13/10/3
f 12/6/4 11/5/4 15/11/4 14/12/4
f 11/1/5 10/13/5 16/10/5 15/9/5
f 10/14/6 9/15/6 13/12/6 16/11/6
f 17/1/1 18/2/1 19/3/1 20/4/1
f 21/3/2 22/5/2 23/6/2 24/4/2
f 17/7/3 20/8/3 22/9/3 21/10/3
f 20/6/4 19/5/4 23/11/4 22/12/4
f 19/1/5 18/13/5 24/10/5 23/9/5
f 18/14/6 17/15/6 21/12/6 24/11/6
f 25/1/1 26/2/1 27/3/1 28/4/1
f 29/3/2 30/5/2 31/6/2 32/4/2
f 25/7/3 28/8/3 30/9/3 29/10/3
f 28/6/4 27/5/4 31/11/4 30/12/4
f 27/1/5 26/13/5 32/10/5 31/9/5
f 26/14/6 25/15/6 29/12/6 32/11/6
f 33/1/1 34/2/1 35/3/1 36/4/1
f 37/3/2 38/5/2 39/6/2 40/4/2
f 33/7/3 36/8/3 38/9/3 37/10/3
f 36/6/4 35/5/4 39/11/4 38/12/4
f 35/1/5 34/13/5 40/10/5 39/9/5
f 34/14/6 33/15/6 37/12/6 40/11/6
f 41/1/1 42/2/1 43/3/1 44/4/1
f 45/3/2 46/5/2 47/6/2 48/4/2
f 41/7/3 44/8/3 46/9/3 45/10/3
f 44/6/4 43/5/4 47/11/4 46/12/4
f 43/1/5 42/13/5 48/10/5 47/9/5
f 42/14/6 41/15/6 45/12/6 48/11/6
f 49/1/1 50/2/1 51/3/1 52/4/1
f 53/3/2 54/5/2 55/6/2 56/4/2
f 49/7/3 52/8/3 54/9/3 53/10/3
f 52/6/4 51/5/4 55/11/4 54/12/4
f 51/1/5 50/13/5 56/10/5 55/9/5
f 50/14/6 49/15/6 53/12/6 56/11/6
f 57/1/1 58/2/1 59/3/1 60/4/1
f 61/3/2 62/5/2 63/6/2 64/4/2
f 57/7/3 60/8/3 62/9/3 61/10/3
f 60/6/4 59/5/4 63/11/4 62/12/4
f 59/1/5 58/13/5 64/10/5 63/9/5
f 58/14/6 57/15/6 61/12/6 64/11/6
f 65/1/1 66/2/1 67/3/1 68/4/1
f 69/3/2 70/5/2 71/6/2 72/4/2
f 65/7/3 68/8/3 70/9/3 69/10/3
f 68/6/4 67/5/4 71/11/4 70/12/4
f 67/1/5 66/13/5 72/10/5 71/9/5
f 66/14/6 65/15/6 69/12/6 72/11/6
f 73/1/1 74/2/1 75/3/1 76/4/1
f 77/3/2 78/5/2 79/6/2 80/4/2
f 73/7/3 76/8/3 78/9/3 77/10/3
f 76/6/4 75/5/4 79/11/4 78/12/4
f 75/1/5 74/13/5 80/10/5 79/9/5
f 74/14/6 73/15/6 77/12/6 80/11/6
f 81/1/1 82/2/1 83/3/1 84/4/1
f 85/3/2 86/5/2 87/6/2 88/4/2
f 81/7/3 84/8/3 86/9/3 85/10/3
f 84/6/4 83/5/4 87/11/4 86/12/4
f 83/1/5 82/13/5 88/10/5 87/9/5
f 82/14/6 81/15/6 85/12/6 88/11/6
f 89/1/1 90/2/1 91/3/1 92/4/1
f 93/3/2 94/5/2 95/6/2 96/4/2
f 89/7/3 92/8/3 94/9/3 93/10/3
f 92/6/4 91/5/4 95/11/4 94/12/4
f 91/1/5 90/13/5 96/10/5 95/9/5
f 90/14/6 89/15/6 93/12/6 96/11/6
f 97/1/1 98/2/1 99/3/1 100/4/1
f 101/3/2 102/5/2 103/6/2 104/4/2
f 97/7/3 100/8/3 102/9/3 101/10/3
f 100/6/4 99/5/4 103/11/4 102/12/4
f 99/1/5 98/13/5 104/10/5 103/9/5
f 98/14/6 97/15/6 101/12/6 104/11/6
f 105/1/1 106/2/1 107/3/1 108/4/1
f 109/3/2 110/5/2 111/6/2 112/4/2
f 105/7/3 108/8/3 110/9/3 109/10/3
f 108/6/4 107/5/4 111/11/4 110/12/4
f 107/1/5 106/13/5 112/10/5 111/9/5
f 106/14/6 105/15/6 109/12/6 112/11/6
f 113/1/1 114/2/1 115/3/1 116/4/1
f 117/3/2 118/5/2 119/6/2 120/4/2
f 113/7/3 116/8/3 118/9/3 117/10/3
f 116/6/4 115/5/4 119/11/4 118/12/4
f 115/1/5 114/13/5 120/10/5 119/9/5
f 114/14/6 113/15/6 117/12/6 120/11/6
o Group003_Box125
v 6.912072 7.269943 5.926591
v 6.912072 7.269944 -1.433172
v 6.974309 7.269944 -1.433172
v 6.974309 7.269943 5.926591
v 6.912072 7.606090 5.926592
v 6.974309 7.606090 5.926592
v 6.974309 7.606091 -1.433172
v 6.912072 7.606091 -1.433172
v 6.912072 6.782531 5.926591
v 6.912072 6.782532 -1.433172
v 6.974309 6.782532 -1.433172
v 6.974309 6.782531 5.926591
v 6.912072 7.118678 5.926591
v 6.974309 7.118678 5.926591
v 6.974309 7.118679 -1.433172
v 6.912072 7.118679 -1.433172
v 6.912072 6.295118 5.926591
v 6.912072 6.295119 -1.433172
v 6.974309 6.295119 -1.433172
v 6.974309 6.295118 5.926591
v 6.912072 6.631264 5.926591
v 6.974309 6.631264 5.926591
v 6.974309 6.631265 -1.433172
v 6.912072 6.631265 -1.433172
v 6.912072 5.807705 5.926591
v 6.912072 5.807706 -1.433172
v 6.974309 5.807706 -1.433172
v 6.974309 5.807705 5.926591
v 6.912072 6.143852 5.926591
v 6.974309 6.143852 5.926591
v 6.974309 6.143853 -1.433172
v 6.912072 6.143853 -1.433172
v 6.912072 5.320292 5.926591
v 6.912072 5.320293 -1.433172
v 6.974309 5.320293 -1.433172
v 6.974309 5.320292 5.926591
v 6.912072 5.656439 5.926591
v 6.974309 5.656439 5.926591
v 6.974309 5.656440 -1.433172
v 6.912072 5.656440 -1.433172
v 6.912072 4.832880 5.926591
v 6.912072 4.832880 -1.433172
v 6.974309 4.832880 -1.433172
v 6.974309 4.832880 5.926591
v 6.912072 5.169026 5.926591
v 6.974309 5.169026 5.926591
v 6.974309 5.169027 -1.433172
v 6.912072 5.169027 -1.433172
v 6.912072 4.345467 5.926591
v 6.912072 4.345468 -1.433172
v 6.974309 4.345468 -1.433172
v 6.974309 4.345467 5.926591
v 6.912072 4.681613 5.926591
v 6.974309 4.681613 5.926591
v 6.974309 4.681614 -1.433172
v 6.912072 4.681614 -1.433172
v 6.912072 3.858054 5.926591
v 6.912072 3.858055 -1.433173
v 6.974309 3.858055 -1.433173
v 6.974309 3.858054 5.926591
v 6.912072 4.194201 5.926591
v 6.974309 4.194201 5.926591
v 6.974309 4.194202 -1.433172
v 6.912072 4.194202 -1.433172
v 6.912072 3.370641 5.926591
v 6.912072 3.370643 -1.433173
v 6.974309 3.370643 -1.433173
v 6.974309 3.370641 5.926591
v 6.912072 3.706788 5.926591
v 6.974309 3.706788 5.926591
v 6.974309 3.706789 -1.433173
v 6.912072 3.706789 -1.433173
v 6.912072 2.883229 5.926591
v 6.912072 2.883230 -1.433173
v 6.974309 2.883230 -1.433173
v 6.974309 2.883229 5.926591
v 6.912072 3.219375 5.926591
v 6.974309 3.219375 5.926591
v 6.974309 3.219377 -1.433173
v 6.912072 3.219377 -1.433173
v 6.912072 2.395816 5.926591
v 6.912072 2.395817 -1.433173
v 6.974309 2.395817 -1.433173
v 6.974309 2.395816 5.926591
v 6.912072 2.731963 5.926591
v 6.974309 2.731963 5.926591
v 6.974309 2.731964 -1.433173
v 6.912072 2.731964 -1.433173
v 6.912072 1.908403 5.926591
v 6.912072 1.908404 -1.433173
v 6.974309 1.908404 -1.433173
v 6.974309 1.908403 5.926591
v 6.912072 2.244550 5.926591
v 6.974309 2.244550 5.926591
v 6.974309 2.244551 -1.433173
v 6.912072 2.244551 -1.433173
v 6.912072 1.420991 5.926590
v 6.912072 1.420992 -1.433173
v 6.974309 1.420992 -1.433173
v 6.974309 1.420991 5.926590
v 6.912072 1.757137 5.926591
v 6.974309 1.757137 5.926591
v 6.974309 1.757139 -1.433173
v 6.912072 1.757139 -1.433173
v 6.912072 0.933578 5.926590
v 6.912072 0.933579 -1.433173
v 6.974309 0.933579 -1.433173
v 6.974309 0.933578 5.926590
v 6.912072 1.269725 5.926590
v 6.974309 1.269725 5.926590
v 6.974309 1.269726 -1.433173
v 6.912072 1.269726 -1.433173
v 6.912072 0.446166 5.926590
v 6.912072 0.446167 -1.433173
v 6.974309 0.446167 -1.433173
v 6.974309 0.446166 5.926590
v 6.912072 0.782312 5.926590
v 6.974309 0.782312 5.926590
v 6.974309 0.782314 -1.433173
v 6.912072 0.782314 -1.433173
vt 0.911905 0.722094
vt 0.911905 0.684156
vt 0.914654 0.684156
vt 0.914654 0.722094
vt 0.917402 0.684156
vt 0.917402 0.722094
vt 0.909156 0.718628
vt 0.911905 0.718628
vt 0.911905 0.720361
vt 0.909156 0.720361
vt 0.932248 0.684156
vt 0.932248 0.722094
vt 0.909156 0.722094
vt 0.947094 0.684156
vt 0.947094 0.722094
vn 0.000000 -1.000000 -0.000000
vn 0.000000 1.000000 0.000000
vn 0.000000 -0.000000 1.000000
vn 1.000000 -0.000000 0.000000
vn 0.000000 0.000000 -1.000000
vn -1.000000 0.000000 0.000000
usemtl lambert3SG
s off
f 121/16/7 122/17/7 123/18/7 124/19/7
f 125/18/8 126/20/8 127/21/8 128/19/8
f 121/22/9 124/23/9 126/24/9 125/25/9
f 124/21/10 123/20/10 127/26/10 126/27/10
f 123/16/11 122/28/11 128/25/11 127/24/11
f 122/29/12 121/30/12 125/27/12 128/26/12
f 129/16/7 130/17/7 131/18/7 132/19/7
f 133/18/8 134/20/8 135/21/8 136/19/8
f 129/22/9 132/23/9 134/24/9 133/25/9
f 132/21/10 131/20/10 135/26/10 134/27/10
f 131/16/11 130/28/11 136/25/11 135/24/11
f 130/29/12 129/30/12 133/27/12 136/26/12
f 137/16/7 138/17/7 139/18/7 140/19/7
f 141/18/8 142/20/8 143/21/8 144/19/8
f 137/22/9 140/23/9 142/24/9 141/25/9
f 140/21/10 139/20/10 143/26/10 142/27/10
f 139/16/11 138/28/11 144/25/11 143/24/11
f 138/29/12 137/30/12 141/27/12 144/26/12
f 145/16/7 146/17/7 147/18/7 148/19/7
f 149/18/8 150/20/8 151/21/8 152/19/8
f 145/22/9 148/23/9 150/24/9 149/25/9
f 148/21/10 147/20/10 151/26/10 150/27/10
f 147/16/11 146/28/11 152/25/11 151/24/11
f 146/29/12 145/30/12 149/27/12 152/26/12
f 153/16/7 154/17/7 155/18/7 156/19/7
f 157/18/8 158/20/8 159/21/8 160/19/8
f 153/22/9 156/23/9 158/24/9 157/25/9
f 156/21/10 155/20/10 159/26/10 158/27/10
f 155/16/11 154/28/11 160/25/11 159/24/11
f 154/29/12 153/30/12 157/27/12 160/26/12
f 161/16/7 162/17/7 163/18/7 164/19/7
f 165/18/8 166/20/8 167/21/8 168/19/8
f 161/22/9 164/23/9 166/24/9 165/25/9
f 164/21/10 163/20/10 167/26/10 166/27/10
f 163/16/11 162/28/11 168/25/11 167/24/11
f 162/29/12 161/30/12 165/27/12 168/26/12
f 169/16/7 170/17/7 171/18/7 172/19/7
f 173/18/8 174/20/8 175/21/8 176/19/8
f 169/22/9 172/23/9 174/24/9 173/25/9
f 172/21/10 171/20/10 175/26/10 174/27/10
f 171/16/11 170/28/11 176/25/11 175/24/11
f 170/29/12 169/30/12 173/27/12 176/26/12
f 177/16/7 178/17/7 179/18/7 180/19/7
f 181/18/8 182/20/8 183/21/8 184/19/8
f 177/22/9 180/23/9 182/24/9 181/25/9
f 180/21/10 179/20/10 183/26/10 182/27/10
f 179/16/11 178/28/11 184/25/11 183/24/11
f 178/29/12 177/30/12 181/27/12 184/26/12
f 185/16/7 186/17/7 187/18/7 188/19/7
f 189/18/8 190/20/8 191/21/8 192/19/8
f 185/22/9 188/23/9 190/24/9 189/25/9
f 188/21/10 187/20/10 191/26/10 190/27/10
f 187/16/11 186/28/11 192/25/11 191/24/11
f 186/29/12 185/30/12 189/27/12 192/26/12
f 193/16/7 194/17/7 195/18/7 196/19/7
f 197/18/8 198/20/8 199/21/8 200/19/8
f 193/22/9 196/23/9 198/24/9 197/25/9
f 196/21/10 195/20/10 199/26/10 198/27/10
f 195/16/11 194/28/11 200/25/11 199/24/11
f 194/29/12 193/30/12 197/27/12 200/26/12
f 201/16/7 202/17/7 203/18/7 204/19/7
f 205/18/8 206/20/8 207/21/8 208/19/8
f 201/22/9 204/23/9 206/24/9 205/25/9
f 204/21/10 203/20/10 207/26/10 206/27/10
f 203/16/11 202/28/11 208/25/11 207/24/11
f 202/29/12 201/30/12 205/27/12 208/26/12
f 209/16/7 210/17/7 211/18/7 212/19/7
f 213/18/8 214/20/8 215/21/8 216/19/8
f 209/22/9 212/23/9 214/24/9 213/25/9
f 212/21/10 211/20/10 215/26/10 214/27/10
f 211/16/11 210/28/11 216/25/11 215/24/11
f 210/29/12 209/30/12 213/27/12 216/26/12
f 217/16/7 218/17/7 219/18/7 220/19/7
f 221/18/8 222/20/8 223/21/8 224/19/8
f 217/22/9 220/23/9 222/24/9 221/25/9
f 220/21/10 219/20/10 223/26/10 222/27/10
f 219/16/11 218/28/11 224/25/11 223/24/11
f 218/29/12 217/30/12 221/27/12 224/26/12
f 225/16/7 226/17/7 227/18/7 228/19/7
f 229/18/8 230/20/8 231/21/8 232/19/8
f 225/22/9 228/23/9 230/24/9 229/25/9
f 228/21/10 227/20/10 231/26/10 230/27/10
f 227/16/11 226/28/11 232/25/11 231/24/11
f 226/29/12 225/30/12 229/27/12 232/26/12
f 233/16/7 234/17/7 235/18/7 236/19/7
f 237/18/8 238/20/8 239/21/8 240/19/8
f 233/22/9 236/23/9 238/24/9 237/25/9
f 236/21/10 235/20/10 239/26/10 238/27/10
f 235/16/11 234/28/11 240/25/11 239/24/11
f 234/29/12 233/30/12 237/27/12 240/26/12
