# Blender v2.76 (sub 0) OBJ File: 'skybox.blend'
# www.blender.org
mtllib skybox.mtl
o 큐브
v -50.038803 -50.038803 50.038803
v -50.038803 50.038803 50.038803
v -50.038803 -50.038803 -50.038803
v -50.038803 50.038803 -50.038803
v 50.038803 -50.038803 50.038803
v 50.038803 50.038803 50.038803
v 50.038803 -50.038803 -50.038803
v 50.038803 50.038803 -50.038803
vt 0.750000 0.666667
vt 0.750000 0.333333
vt 1.000000 0.333333
vt 1.000000 0.666667
vt 0.000000 0.666667
vt 0.000000 0.333333
vt 0.250000 0.333333
vt 0.250000 0.666667
vt 0.500000 0.333333
vt 0.500000 0.666667
vt 0.500000 0.003255
vt 0.250000 0.003255
vt 0.500000 1.000000
vt 0.250000 1.000000
vn 1.000000 0.000000 0.000000
vn 0.000000 0.000000 1.000000
vn -1.000000 0.000000 0.000000
vn 0.000000 0.000000 -1.000000
vn 0.000000 1.000000 0.000000
vn 0.000000 -1.000000 0.000000
usemtl None
s off
f 2/1/1 1/2/1 3/3/1 4/4/1
f 4/5/2 3/6/2 7/7/2 8/8/2
f 8/8/3 7/7/3 5/9/3 6/10/3
f 6/10/4 5/9/4 1/2/4 2/1/4
f 1/11/5 5/9/5 7/7/5 3/12/5
f 6/10/6 2/13/6 4/14/6 8/8/6
